^C:\USERS\BEHEERDER\DROPBOX\GAME FILES\C++ PROJECTEN\KNIGHTSTOUR\CONSOLEAPPLICATION1\CONSOLEAPPLICATION1\STDAFX.CPP
/c /ZI /nologo /W3 /WX- /sdl /Od /Oy- /D WIN32 /D _DEBUG /D _CONSOLE /D _UNICODE /D UNICODE /Gm /EHsc /RTC1 /MDd /GS /fp:precise /Zc:wchar_t /Zc:forScope /Zc:inline /Yc"stdafx.h" /Fp"DEBUG\CONSOLEAPPLICATION1.PCH" /Fo"DEBUG\\" /Fd"DEBUG\VC140.PDB" /Gd /TP /analyze- C:\USERS\BEHEERDER\DROPBOX\GAME FILES\C++ PROJECTEN\KNIGHTSTOUR\CONSOLEAPPLICATION1\CONSOLEAPPLICATION1\STDAFX.CPP
^C:\USERS\BEHEERDER\DROPBOX\GAME FILES\C++ PROJECTEN\KNIGHTSTOUR\CONSOLEAPPLICATION1\CONSOLEAPPLICATION1\CONSOLEAPPLICATION1.CPP
/c /ZI /nologo /W3 /WX- /sdl /Od /Oy- /D WIN32 /D _DEBUG /D _CONSOLE /D _UNICODE /D UNICODE /Gm /EHsc /RTC1 /MDd /GS /fp:precise /Zc:wchar_t /Zc:forScope /Zc:inline /Yu"stdafx.h" /Fp"DEBUG\CONSOLEAPPLICATION1.PCH" /Fo"DEBUG\\" /Fd"DEBUG\VC140.PDB" /Gd /TP /analyze- C:\USERS\BEHEERDER\DROPBOX\GAME FILES\C++ PROJECTEN\KNIGHTSTOUR\CONSOLEAPPLICATION1\CONSOLEAPPLICATION1\CONSOLEAPPLICATION1.CPP
