^C:\USERS\TOM\DROPBOX\GAME FILES\C++ PROJECTEN\KNIGHTSTOUR\CONSOLEAPPLICATION1\CONSOLEAPPLICATION1\RELEASE\CONSOLEAPPLICATION1.OBJ|C:\USERS\TOM\DROPBOX\GAME FILES\C++ PROJECTEN\KNIGHTSTOUR\CONSOLEAPPLICATION1\CONSOLEAPPLICATION1\RELEASE\STDAFX.OBJ
C:\USERS\TOM\DROPBOX\GAME FILES\C++ PROJECTEN\KNIGHTSTOUR\CONSOLEAPPLICATION1\RELEASE\CONSOLEAPPLICATION1.EXE
C:\USERS\TOM\DROPBOX\GAME FILES\C++ PROJECTEN\KNIGHTSTOUR\CONSOLEAPPLICATION1\RELEASE\CONSOLEAPPLICATION1.IPDB
C:\USERS\TOM\DROPBOX\GAME FILES\C++ PROJECTEN\KNIGHTSTOUR\CONSOLEAPPLICATION1\RELEASE\CONSOLEAPPLICATION1.IOBJ
C:\USERS\TOM\DROPBOX\GAME FILES\C++ PROJECTEN\KNIGHTSTOUR\CONSOLEAPPLICATION1\RELEASE\CONSOLEAPPLICATION1.PDB
